<mxfile host="app.diagrams.net" modified="2023-03-31T08:49:38.788Z" agent="Mozilla/5.0 (Windows NT 10.0; Win64; x64) AppleWebKit/537.36 (KHTML, like Gecko) Chrome/110.0.0.0 Safari/537.36 OPR/96.0.0.0" etag="ny2X2FZKc4_WsNroLFQa" version="21.1.2" type="google">
  <diagram name="Страница 1" id="QU8psvEW9j4QWG8dAp48">
    <mxGraphModel grid="1" page="1" gridSize="10" guides="1" tooltips="1" connect="1" arrows="1" fold="1" pageScale="1" pageWidth="827" pageHeight="1169" math="0" shadow="0">
      <root>
        <mxCell id="0" />
        <mxCell id="1" parent="0" />
        <mxCell id="t5N3H5uGiw3VfZpx5-e0-8" value="3λ" style="rounded=0;orthogonalLoop=1;jettySize=auto;html=1;exitX=0.976;exitY=0.345;exitDx=0;exitDy=0;exitPerimeter=0;entryX=0.033;entryY=0.333;entryDx=0;entryDy=0;entryPerimeter=0;strokeWidth=3;fontSize=18;" edge="1" parent="1" target="YHlNBqHVui2hrO-1cYMx-31">
          <mxGeometry relative="1" as="geometry">
            <mxPoint x="-742" y="240.69999999999982" as="sourcePoint" />
            <mxPoint x="-628.56" y="240" as="targetPoint" />
          </mxGeometry>
        </mxCell>
        <mxCell id="YHlNBqHVui2hrO-1cYMx-2" value="&lt;font style=&quot;font-size: 18px;&quot;&gt;S&lt;/font&gt;&lt;span style=&quot;font-size: 18px;&quot;&gt;21000&lt;/span&gt;" style="ellipse;whiteSpace=wrap;html=1;aspect=fixed;strokeWidth=3;fontSize=18;" vertex="1" parent="1">
          <mxGeometry x="-602" y="220" width="60" height="60" as="geometry" />
        </mxCell>
        <mxCell id="YHlNBqHVui2hrO-1cYMx-5" value="&lt;font style=&quot;font-size: 18px;&quot;&gt;Вариант 1&lt;br&gt;k=3 | N=1 | m1=2 | M=3 | m2=2&lt;/font&gt;" style="text;html=1;strokeColor=none;fillColor=none;align=center;verticalAlign=middle;whiteSpace=wrap;rounded=0;" vertex="1" parent="1">
          <mxGeometry x="-810" y="650" width="320" height="30" as="geometry" />
        </mxCell>
        <mxCell id="YHlNBqHVui2hrO-1cYMx-9" value="&lt;font style=&quot;font-size: 24px;&quot;&gt;S&lt;/font&gt;&lt;span style=&quot;font-size: 14px;&quot;&gt;10020&lt;/span&gt;" style="ellipse;whiteSpace=wrap;html=1;aspect=fixed;" vertex="1" parent="1">
          <mxGeometry x="-399" y="620" width="60" height="60" as="geometry" />
        </mxCell>
        <mxCell id="YHlNBqHVui2hrO-1cYMx-10" value="&lt;font style=&quot;font-size: 24px;&quot;&gt;S&lt;/font&gt;&lt;span style=&quot;font-size: 14px;&quot;&gt;00030&lt;/span&gt;" style="ellipse;whiteSpace=wrap;html=1;aspect=fixed;" vertex="1" parent="1">
          <mxGeometry x="-199" y="820" width="60" height="60" as="geometry" />
        </mxCell>
        <mxCell id="YHlNBqHVui2hrO-1cYMx-11" value="&lt;font style=&quot;font-size: 24px;&quot;&gt;S&lt;/font&gt;&lt;span style=&quot;font-size: 14px;&quot;&gt;01020&lt;/span&gt;" style="ellipse;whiteSpace=wrap;html=1;aspect=fixed;" vertex="1" parent="1">
          <mxGeometry x="-200" y="620" width="60" height="60" as="geometry" />
        </mxCell>
        <mxCell id="YHlNBqHVui2hrO-1cYMx-22" value="1pν" style="rounded=0;orthogonalLoop=1;jettySize=auto;html=1;entryX=1.017;entryY=0.639;entryDx=0;entryDy=0;entryPerimeter=0;strokeColor=#D11919;exitX=0.012;exitY=0.652;exitDx=0;exitDy=0;exitPerimeter=0;strokeWidth=3;fontSize=18;" edge="1" parent="1" source="YHlNBqHVui2hrO-1cYMx-31">
          <mxGeometry relative="1" as="geometry">
            <mxPoint x="-630" y="260.14" as="sourcePoint" />
            <mxPoint x="-742" y="260" as="targetPoint" />
          </mxGeometry>
        </mxCell>
        <mxCell id="YHlNBqHVui2hrO-1cYMx-30" value="&lt;font style=&quot;font-size: 24px;&quot;&gt;S&lt;/font&gt;&lt;span style=&quot;font-size: 14px;&quot;&gt;30000&lt;/span&gt;" style="ellipse;whiteSpace=wrap;html=1;aspect=fixed;" vertex="1" parent="1">
          <mxGeometry x="-802" y="220" width="60" height="60" as="geometry" />
        </mxCell>
        <mxCell id="YHlNBqHVui2hrO-1cYMx-31" value="&lt;font style=&quot;font-size: 24px;&quot;&gt;S&lt;/font&gt;&lt;span style=&quot;font-size: 14px;&quot;&gt;21000&lt;/span&gt;" style="ellipse;whiteSpace=wrap;html=1;aspect=fixed;" vertex="1" parent="1">
          <mxGeometry x="-602" y="220" width="60" height="60" as="geometry" />
        </mxCell>
        <mxCell id="YHlNBqHVui2hrO-1cYMx-32" value="&lt;font style=&quot;font-size: 24px;&quot;&gt;S&lt;/font&gt;&lt;span style=&quot;font-size: 14px;&quot;&gt;11100&lt;/span&gt;" style="ellipse;whiteSpace=wrap;html=1;aspect=fixed;" vertex="1" parent="1">
          <mxGeometry x="-400" y="220" width="60" height="60" as="geometry" />
        </mxCell>
        <mxCell id="YHlNBqHVui2hrO-1cYMx-33" value="&lt;font style=&quot;font-size: 24px;&quot;&gt;S&lt;/font&gt;&lt;span style=&quot;font-size: 14px;&quot;&gt;01200&lt;/span&gt;" style="ellipse;whiteSpace=wrap;html=1;aspect=fixed;" vertex="1" parent="1">
          <mxGeometry x="-200" y="220" width="60" height="60" as="geometry" />
        </mxCell>
        <mxCell id="YHlNBqHVui2hrO-1cYMx-34" value="&lt;font style=&quot;font-size: 24px;&quot;&gt;S&lt;/font&gt;&lt;span style=&quot;font-size: 14px;&quot;&gt;20010&lt;/span&gt;" style="ellipse;whiteSpace=wrap;html=1;aspect=fixed;" vertex="1" parent="1">
          <mxGeometry x="-601" y="420" width="60" height="60" as="geometry" />
        </mxCell>
        <mxCell id="YHlNBqHVui2hrO-1cYMx-35" value="&lt;font style=&quot;font-size: 24px;&quot;&gt;S&lt;/font&gt;&lt;span style=&quot;font-size: 14px;&quot;&gt;11010&lt;/span&gt;" style="ellipse;whiteSpace=wrap;html=1;aspect=fixed;strokeWidth=3;" vertex="1" parent="1">
          <mxGeometry x="-399" y="420" width="60" height="60" as="geometry" />
        </mxCell>
        <mxCell id="YHlNBqHVui2hrO-1cYMx-36" value="&lt;font style=&quot;font-size: 24px;&quot;&gt;S&lt;/font&gt;&lt;span style=&quot;font-size: 14px;&quot;&gt;01110&lt;/span&gt;" style="ellipse;whiteSpace=wrap;html=1;aspect=fixed;" vertex="1" parent="1">
          <mxGeometry x="-199" y="420" width="60" height="60" as="geometry" />
        </mxCell>
        <mxCell id="YHlNBqHVui2hrO-1cYMx-37" value="2λ" style="rounded=0;orthogonalLoop=1;jettySize=auto;html=1;exitX=0.976;exitY=0.345;exitDx=0;exitDy=0;exitPerimeter=0;entryX=0.033;entryY=0.333;entryDx=0;entryDy=0;entryPerimeter=0;strokeWidth=3;fontSize=18;" edge="1" parent="1">
          <mxGeometry relative="1" as="geometry">
            <mxPoint x="-542" y="240.69999999999982" as="sourcePoint" />
            <mxPoint x="-400" y="240" as="targetPoint" />
          </mxGeometry>
        </mxCell>
        <mxCell id="YHlNBqHVui2hrO-1cYMx-38" value="1pν" style="rounded=0;orthogonalLoop=1;jettySize=auto;html=1;entryX=1.017;entryY=0.639;entryDx=0;entryDy=0;entryPerimeter=0;strokeColor=#D11919;exitX=0.012;exitY=0.652;exitDx=0;exitDy=0;exitPerimeter=0;strokeWidth=3;fontSize=18;" edge="1" parent="1">
          <mxGeometry relative="1" as="geometry">
            <mxPoint x="-401" y="259" as="sourcePoint" />
            <mxPoint x="-542" y="260" as="targetPoint" />
          </mxGeometry>
        </mxCell>
        <mxCell id="YHlNBqHVui2hrO-1cYMx-39" value="1λ" style="rounded=0;orthogonalLoop=1;jettySize=auto;html=1;exitX=0.976;exitY=0.345;exitDx=0;exitDy=0;exitPerimeter=0;entryX=0.033;entryY=0.333;entryDx=0;entryDy=0;entryPerimeter=0;strokeWidth=3;fontSize=18;" edge="1" parent="1">
          <mxGeometry relative="1" as="geometry">
            <mxPoint x="-340" y="240.69999999999982" as="sourcePoint" />
            <mxPoint x="-198" y="240" as="targetPoint" />
          </mxGeometry>
        </mxCell>
        <mxCell id="YHlNBqHVui2hrO-1cYMx-40" value="1pν" style="rounded=0;orthogonalLoop=1;jettySize=auto;html=1;entryX=1.017;entryY=0.639;entryDx=0;entryDy=0;entryPerimeter=0;strokeColor=#D11919;exitX=0.012;exitY=0.652;exitDx=0;exitDy=0;exitPerimeter=0;strokeWidth=3;fontSize=18;" edge="1" parent="1">
          <mxGeometry relative="1" as="geometry">
            <mxPoint x="-199" y="259" as="sourcePoint" />
            <mxPoint x="-340" y="260" as="targetPoint" />
          </mxGeometry>
        </mxCell>
        <mxCell id="YHlNBqHVui2hrO-1cYMx-46" value="2λ" style="rounded=0;orthogonalLoop=1;jettySize=auto;html=1;exitX=0.976;exitY=0.345;exitDx=0;exitDy=0;exitPerimeter=0;entryX=0.033;entryY=0.333;entryDx=0;entryDy=0;entryPerimeter=0;strokeWidth=3;fontSize=18;" edge="1" parent="1">
          <mxGeometry relative="1" as="geometry">
            <mxPoint x="-541" y="440.6999999999998" as="sourcePoint" />
            <mxPoint x="-399" y="440" as="targetPoint" />
          </mxGeometry>
        </mxCell>
        <mxCell id="YHlNBqHVui2hrO-1cYMx-47" value="1pν" style="rounded=0;orthogonalLoop=1;jettySize=auto;html=1;entryX=1.017;entryY=0.639;entryDx=0;entryDy=0;entryPerimeter=0;strokeColor=#D11919;exitX=0.012;exitY=0.652;exitDx=0;exitDy=0;exitPerimeter=0;strokeWidth=3;fontSize=18;" edge="1" parent="1">
          <mxGeometry relative="1" as="geometry">
            <mxPoint x="-400" y="459" as="sourcePoint" />
            <mxPoint x="-541" y="460" as="targetPoint" />
          </mxGeometry>
        </mxCell>
        <mxCell id="YHlNBqHVui2hrO-1cYMx-48" value="1λ" style="rounded=0;orthogonalLoop=1;jettySize=auto;html=1;exitX=0.976;exitY=0.345;exitDx=0;exitDy=0;exitPerimeter=0;entryX=0.033;entryY=0.333;entryDx=0;entryDy=0;entryPerimeter=0;strokeWidth=3;fontSize=18;" edge="1" parent="1">
          <mxGeometry relative="1" as="geometry">
            <mxPoint x="-342" y="440.6999999999998" as="sourcePoint" />
            <mxPoint x="-200" y="440" as="targetPoint" />
          </mxGeometry>
        </mxCell>
        <mxCell id="YHlNBqHVui2hrO-1cYMx-49" value="1pν" style="rounded=0;orthogonalLoop=1;jettySize=auto;html=1;entryX=1.017;entryY=0.639;entryDx=0;entryDy=0;entryPerimeter=0;strokeColor=#D11919;exitX=0.012;exitY=0.652;exitDx=0;exitDy=0;exitPerimeter=0;strokeWidth=3;fontSize=18;" edge="1" parent="1">
          <mxGeometry relative="1" as="geometry">
            <mxPoint x="-201" y="459" as="sourcePoint" />
            <mxPoint x="-342" y="460" as="targetPoint" />
          </mxGeometry>
        </mxCell>
        <mxCell id="YHlNBqHVui2hrO-1cYMx-50" value="1λ" style="rounded=0;orthogonalLoop=1;jettySize=auto;html=1;exitX=0.976;exitY=0.345;exitDx=0;exitDy=0;exitPerimeter=0;entryX=0.033;entryY=0.333;entryDx=0;entryDy=0;entryPerimeter=0;strokeWidth=3;fontSize=18;" edge="1" parent="1">
          <mxGeometry relative="1" as="geometry">
            <mxPoint x="-342" y="640.6999999999998" as="sourcePoint" />
            <mxPoint x="-200" y="640" as="targetPoint" />
          </mxGeometry>
        </mxCell>
        <mxCell id="YHlNBqHVui2hrO-1cYMx-51" value="1pν" style="rounded=0;orthogonalLoop=1;jettySize=auto;html=1;entryX=1.017;entryY=0.639;entryDx=0;entryDy=0;entryPerimeter=0;strokeColor=#D11919;exitX=0.012;exitY=0.652;exitDx=0;exitDy=0;exitPerimeter=0;strokeWidth=3;fontSize=18;" edge="1" parent="1">
          <mxGeometry relative="1" as="geometry">
            <mxPoint x="-201" y="659" as="sourcePoint" />
            <mxPoint x="-342" y="660" as="targetPoint" />
          </mxGeometry>
        </mxCell>
        <mxCell id="YHlNBqHVui2hrO-1cYMx-52" value="1(1-p)v" style="rounded=0;orthogonalLoop=1;jettySize=auto;html=1;exitX=0.5;exitY=1;exitDx=0;exitDy=0;entryX=0.5;entryY=0;entryDx=0;entryDy=0;strokeColor=#009900;strokeWidth=3;fontSize=18;" edge="1" parent="1" source="YHlNBqHVui2hrO-1cYMx-33" target="YHlNBqHVui2hrO-1cYMx-36">
          <mxGeometry relative="1" as="geometry">
            <mxPoint x="-190" y="360.6999999999998" as="sourcePoint" />
            <mxPoint x="-48" y="360" as="targetPoint" />
          </mxGeometry>
        </mxCell>
        <mxCell id="YHlNBqHVui2hrO-1cYMx-53" value="1(1-p)v" style="rounded=0;orthogonalLoop=1;jettySize=auto;html=1;exitX=0.5;exitY=1;exitDx=0;exitDy=0;entryX=0.5;entryY=0;entryDx=0;entryDy=0;strokeColor=#009900;strokeWidth=3;fontSize=18;" edge="1" parent="1">
          <mxGeometry relative="1" as="geometry">
            <mxPoint x="-369.5" y="280" as="sourcePoint" />
            <mxPoint x="-368.5" y="420" as="targetPoint" />
          </mxGeometry>
        </mxCell>
        <mxCell id="YHlNBqHVui2hrO-1cYMx-54" value="1(1-p)v" style="rounded=0;orthogonalLoop=1;jettySize=auto;html=1;exitX=0.5;exitY=1;exitDx=0;exitDy=0;entryX=0.5;entryY=0;entryDx=0;entryDy=0;strokeColor=#009900;strokeWidth=3;fontSize=18;" edge="1" parent="1">
          <mxGeometry relative="1" as="geometry">
            <mxPoint x="-571.5" y="280" as="sourcePoint" />
            <mxPoint x="-570.5" y="420" as="targetPoint" />
          </mxGeometry>
        </mxCell>
        <mxCell id="YHlNBqHVui2hrO-1cYMx-55" value="1(1-p)v" style="rounded=0;orthogonalLoop=1;jettySize=auto;html=1;exitX=0.5;exitY=1;exitDx=0;exitDy=0;entryX=0.5;entryY=0;entryDx=0;entryDy=0;strokeColor=#009900;strokeWidth=3;fontSize=18;" edge="1" parent="1">
          <mxGeometry relative="1" as="geometry">
            <mxPoint x="-169.5" y="480" as="sourcePoint" />
            <mxPoint x="-168.5" y="620" as="targetPoint" />
          </mxGeometry>
        </mxCell>
        <mxCell id="YHlNBqHVui2hrO-1cYMx-56" value="1(1-p)v" style="rounded=0;orthogonalLoop=1;jettySize=auto;html=1;exitX=0.5;exitY=1;exitDx=0;exitDy=0;entryX=0.5;entryY=0;entryDx=0;entryDy=0;strokeColor=#009900;strokeWidth=3;fontSize=18;" edge="1" parent="1">
          <mxGeometry relative="1" as="geometry">
            <mxPoint x="-370.5" y="480" as="sourcePoint" />
            <mxPoint x="-369.5" y="620" as="targetPoint" />
          </mxGeometry>
        </mxCell>
        <mxCell id="YHlNBqHVui2hrO-1cYMx-57" value="1(1-p)v" style="rounded=0;orthogonalLoop=1;jettySize=auto;html=1;exitX=0.5;exitY=1;exitDx=0;exitDy=0;entryX=0.5;entryY=0;entryDx=0;entryDy=0;strokeColor=#009900;strokeWidth=3;fontSize=18;" edge="1" parent="1">
          <mxGeometry relative="1" as="geometry">
            <mxPoint x="-169.5" y="680" as="sourcePoint" />
            <mxPoint x="-168.5" y="820" as="targetPoint" />
          </mxGeometry>
        </mxCell>
        <mxCell id="YHlNBqHVui2hrO-1cYMx-58" value="3μ" style="rounded=0;orthogonalLoop=1;jettySize=auto;html=1;exitX=0;exitY=0;exitDx=0;exitDy=0;entryX=1;entryY=1;entryDx=0;entryDy=0;strokeColor=#D419C7;strokeWidth=3;fontSize=18;" edge="1" parent="1" source="YHlNBqHVui2hrO-1cYMx-10" target="YHlNBqHVui2hrO-1cYMx-9">
          <mxGeometry relative="1" as="geometry">
            <mxPoint x="-380" y="710" as="sourcePoint" />
            <mxPoint x="-379" y="850" as="targetPoint" />
          </mxGeometry>
        </mxCell>
        <mxCell id="YHlNBqHVui2hrO-1cYMx-59" value="μ" style="rounded=0;orthogonalLoop=1;jettySize=auto;html=1;exitX=0;exitY=0;exitDx=0;exitDy=0;entryX=1;entryY=1;entryDx=0;entryDy=0;strokeColor=#D419C7;strokeWidth=3;fontSize=18;" edge="1" parent="1" source="YHlNBqHVui2hrO-1cYMx-34" target="YHlNBqHVui2hrO-1cYMx-30">
          <mxGeometry relative="1" as="geometry">
            <mxPoint x="-602" y="450" as="sourcePoint" />
            <mxPoint x="-772" y="280" as="targetPoint" />
          </mxGeometry>
        </mxCell>
        <mxCell id="YHlNBqHVui2hrO-1cYMx-60" value="2μ" style="rounded=0;orthogonalLoop=1;jettySize=auto;html=1;exitX=0;exitY=0;exitDx=0;exitDy=0;entryX=1;entryY=1;entryDx=0;entryDy=0;strokeColor=#D419C7;strokeWidth=3;fontSize=18;" edge="1" parent="1" source="YHlNBqHVui2hrO-1cYMx-9" target="YHlNBqHVui2hrO-1cYMx-34">
          <mxGeometry relative="1" as="geometry">
            <mxPoint x="-399" y="650" as="sourcePoint" />
            <mxPoint x="-569" y="480" as="targetPoint" />
          </mxGeometry>
        </mxCell>
        <mxCell id="YHlNBqHVui2hrO-1cYMx-61" value="2μ" style="rounded=0;orthogonalLoop=1;jettySize=auto;html=1;exitX=0;exitY=0;exitDx=0;exitDy=0;entryX=0.803;entryY=0.893;entryDx=0;entryDy=0;strokeColor=#D419C7;strokeWidth=3;fontSize=18;entryPerimeter=0;" edge="1" parent="1" source="YHlNBqHVui2hrO-1cYMx-11" target="YHlNBqHVui2hrO-1cYMx-35">
          <mxGeometry relative="1" as="geometry">
            <mxPoint x="-180" y="640" as="sourcePoint" />
            <mxPoint x="-350" y="470" as="targetPoint" />
          </mxGeometry>
        </mxCell>
        <mxCell id="YHlNBqHVui2hrO-1cYMx-62" value="μ" style="rounded=0;orthogonalLoop=1;jettySize=auto;html=1;entryX=1;entryY=1;entryDx=0;entryDy=0;strokeColor=#D419C7;strokeWidth=3;fontSize=18;exitX=0;exitY=0;exitDx=0;exitDy=0;" edge="1" parent="1" source="YHlNBqHVui2hrO-1cYMx-35" target="YHlNBqHVui2hrO-1cYMx-31">
          <mxGeometry relative="1" as="geometry">
            <mxPoint x="-470" y="390" as="sourcePoint" />
            <mxPoint x="-542" y="270" as="targetPoint" />
          </mxGeometry>
        </mxCell>
        <mxCell id="YHlNBqHVui2hrO-1cYMx-63" value="μ" style="rounded=0;orthogonalLoop=1;jettySize=auto;html=1;exitX=0;exitY=0;exitDx=0;exitDy=0;entryX=1;entryY=1;entryDx=0;entryDy=0;strokeColor=#D419C7;strokeWidth=3;fontSize=18;" edge="1" parent="1" source="YHlNBqHVui2hrO-1cYMx-36" target="YHlNBqHVui2hrO-1cYMx-32">
          <mxGeometry relative="1" as="geometry">
            <mxPoint x="-191" y="438" as="sourcePoint" />
            <mxPoint x="-350" y="280" as="targetPoint" />
          </mxGeometry>
        </mxCell>
      </root>
    </mxGraphModel>
  </diagram>
</mxfile>
