{
  "collapse-filter": true,
  "search": "",
  "showTags": false,
  "showAttachments": false,
  "hideUnresolved": false,
  "showOrphans": true,
  "collapse-color-groups": true,
  "colorGroups": [
    {
      "query": "tag:#ЗащитаИнформации",
      "color": {
        "a": 1,
        "rgb": 10048224
      }
    },
    {
      "query": "tag:#РусскийЯзык",
      "color": {
        "a": 1,
        "rgb": 15018603
      }
    },
    {
      "query": "tag:#ЭксплуатацияАСОИУ",
      "color": {
        "a": 1,
        "rgb": 765704
      }
    },
    {
      "query": "tag:#АХП",
      "color": {
        "a": 1,
        "rgb": 16353567
      }
    },
    {
      "query": "tag:#Экономика-ч2",
      "color": {
        "a": 1,
        "rgb": 14147666
      }
    },
    {
      "query": "tag:#ЭУвАСОИУ",
      "color": {
        "a": 1,
        "rgb": 5419488
      }
    },
    {
      "query": "tag:#Диплом",
      "color": {
        "a": 1,
        "rgb": 16070894
      }
    }
  ],
  "collapse-display": true,
  "showArrow": false,
  "textFadeMultiplier": 0,
  "nodeSizeMultiplier": 0.686979166666667,
  "lineSizeMultiplier": 1,
  "collapse-forces": false,
  "centerStrength": 0.6875,
  "repelStrength": 10.8333333333333,
  "linkStrength": 1,
  "linkDistance": 133,
  "scale": 0.5706582780836073,
  "close": true
}